Non-linear fit of dataset: 080-255_Acuracia_T, using function: a*x/(x + b)
a  = 0.945524609619043 +/- 1.30499264764515e-156
b  = 95.7353876446842 +/- 1.30498826491198e-156
Chi^2/doF = 0.00245674138588274
R^2 = 0.770555455453834
Iterations = 9
Status = success
---------------------------------------------------------------------------------------
Non-linear fit of dataset: 080-255_Acuracia_V, using function: a*x/(x + b)
a  = 0.671904301549411 +/- 4.60223795964683e-160
b  = 25.5865741236488 +/- 8.13706417074725e-157
Chi^2/doF = 0.000955165769225634
R^2 = 0.671454133223277
Iterations = 6
Status = success
---------------------------------------------------------------------------------------
Non-linear fit of dataset: 080-153_Acuracia_T, using function: a*x/(x + b)
a  = 0.969205799786515 +/- 1.02325645465663e-156
b  = 39.9988654186354 +/- 5.02067731610117e-156
Chi^2/doF = 0.00151047067437339
R^2 = 0.753019112750436
Iterations = 7
Status = success
---------------------------------------------------------------------------------------
Non-linear fit of dataset: 080-153_Acuracia_V, using function: a*x/(x + b)
a  = 0.692918021220707 +/- 4.50233488128332e-160
b  = 22.8017214290163 +/- 7.91639936563068e-157
Chi^2/doF = 0.000904062923505862
R^2 = 0.734399253011242
Iterations = 5
Status = success
---------------------------------------------------------------------------------------
Non-linear fit of dataset: 080-026_Acuracia_T, using function: a*x/(x + b)
a  = 1.0006409821572 +/- 6.0371696373041e-157
b  = 26.5189363208249 +/- 6.03714936183416e-157
Chi^2/doF = 0.000525787274292021
R^2 = 0.862775092902343
Iterations = 6
Status = success
---------------------------------------------------------------------------------------
Non-linear fit of dataset: 080-026_Acuracia_V, using function: a*x/(x + b)
a  = 0.951274260513329 +/- 3.46536572208726e-160
b  = 24.555516171226 +/- 6.11229355105357e-157
Chi^2/doF = 0.000538953970075654
R^2 = 0.902653478977838
Iterations = 3
Status = success
---------------------------------------------------------------------------------------
Non-linear fit of dataset: 020-255_Acuracia_T, using function: a*x/(x + b)
a  = 0.990783226647408 +/- 4.75955921566977e-160
b  = 40.5161207340207 +/- 8.57247336571437e-157
Chi^2/doF = 0.00106012129162751
R^2 = 0.815026121380745
Iterations = 7
Status = success
---------------------------------------------------------------------------------------
Non-linear fit of dataset: 020-255_Acuracia_V, using function: a*x/(x + b)
a  = 0.824001951260451 +/- 4.45949889297013e-160
b  = 26.8857141633892 +/- 8.03191057950441e-157
Chi^2/doF = 0.000930638462599676
R^2 = 0.825993067144362
Iterations = 2
Status = success
---------------------------------------------------------------------------------------
Non-linear fit of dataset: 020-153_Acuracia_T, using function: a*x/(x + b)
a  = 0.987046706983184 +/- 7.11365312508913e-157
b  = 30.2772519581369 +/- 7.11362923434475e-157
Chi^2/doF = 0.00073000978424176
R^2 = 0.838526008646092
Iterations = 6
Status = success
---------------------------------------------------------------------------------------
Non-linear fit of dataset: 020-153_Acuracia_V, using function: a*x/(x + b)
a  = 0.851208469664187 +/- 4.24063690703763e-160
b  = 22.8657759799634 +/- 7.66250471724571e-157
Chi^2/doF = 0.000847002667157576
R^2 = 0.829261022411193
Iterations = 3
Status = success
---------------------------------------------------------------------------------------
Non-linear fit of dataset: 020-026_Acuracia_T, using function: a*x/(x + b)
a  = 1.00713224676852 +/- 3.39239295176864e-157
b  = 13.9375219566478 +/- 3.3923815586804e-157
Chi^2/doF = 0.000166018167828432
R^2 = 0.923601140880283
Iterations = 4
Status = success
---------------------------------------------------------------------------------------
Non-linear fit of dataset: 020-026_Acuracia_V, using function: a*x/(x + b)
a  = 0.903148638851439 +/- 3.17169838020163e-160
b  = 13.720438252108 +/- 5.70016860778566e-157
Chi^2/doF = 0.000468725598428491
R^2 = 0.873144342427966
Iterations = 2
Status = success
---------------------------------------------------------------------------------------
Non-linear fit of dataset: 001-255_Acuracia_T, using function: a*x/(x + b)
a  = 0.99487571541815 +/- 5.67345003352711e-157
b  = 25.0941638641711 +/- 5.67343097964453e-157
Chi^2/doF = 0.000464341800403598
R^2 = 0.876834172806284
Iterations = 5
Status = success
---------------------------------------------------------------------------------------
Non-linear fit of dataset: 001-255_Acuracia_V, using function: a*x/(x + b)
a  = 0.900500314335969 +/- 4.14459580352638e-160
b  = 23.3818786492633 +/- 7.32219339169017e-157
Chi^2/doF = 0.000773438272002622
R^2 = 0.825808769038049
Iterations = 3
Status = success
---------------------------------------------------------------------------------------
Non-linear fit of dataset: 001-153_Acuracia_T, using function: a*x/(x + b)
a  = 1.00279056539811 +/- 4.56123308723796e-157
b  = 17.5606313428037 +/- 4.56121776865618e-157
Chi^2/doF = 0.000300128919219351
R^2 = 0.887789239182796
Iterations = 4
Status = success
---------------------------------------------------------------------------------------
Non-linear fit of dataset: 001-153_Acuracia_V, using function: a*x/(x + b)
a  = 0.948423059737028 +/- 3.0858744721625e-160
b  = 18.642844955245 +/- 5.67096814238772e-157
Chi^2/doF = 0.00046393558287101
R^2 = 0.902477365735273
Iterations = 2
Status = success
---------------------------------------------------------------------------------------
Non-linear fit of dataset: 001-026_Acuracia_T, using function: a*x/(x + b)
a  = 1.00583181824545 +/- 3.86602151292585e-157
b  = 7.47990613518534 +/- 3.86600852912027e-157
Chi^2/doF = 0.000215611462287839
R^2 = 0.801446462772512
Iterations = 4
Status = success
---------------------------------------------------------------------------------------
Non-linear fit of dataset: 001-026_Acuracia_V, using function: a*x/(x + b)
a  = 1.00483675265549 +/- 1.81083232008056e-160
b  = 6.23110161260151 +/- 3.27810299190721e-157
Chi^2/doF = 0.000155020258398711
R^2 = 0.945906205430039
Iterations = 2
Status = success
---------------------------------------------------------------------------------------
